module belajar-golang

go 1.18

require (
	github.com/go-playground/validator/v10 v10.18.0
	github.com/gofiber/contrib/jwt v1.0.8
	github.com/gofiber/fiber/v2 v2.52.0
	github.com/golang-jwt/jwt/v5 v5.2.0
	github.com/google/uuid v1.6.0
	github.com/iancoleman/strcase v0.3.0
	github.com/spf13/pflag v1.0.5
	github.com/spf13/viper v1.18.2
	golang.org/x/crypto v0.19.0
	gorm.io/driver/postgres v1.5.6
	gorm.io/gorm v1.25.7
)

require (
	github.com/MicahParks/keyfunc/v2 v2.1.0 // indirect
	github.com/andybalholm/brotli v1.1.0 // indirect
	github.com/fsnotify/fsnotify v1.7.0 // indirect
	github.com/gabriel-vasile/mimetype v1.4.3 // indirect
	github.com/go-playground/locales v0.14.1 // indirect
	github.com/go-playground/universal-translator v0.18.1 // indirect
	github.com/hashicorp/hcl v1.0.0 // indirect
	github.com/jackc/pgpassfile v1.0.0 // indirect
	github.com/jackc/pgservicefile v0.0.0-20231201235250-de7065d80cb9 // indirect
	github.com/jackc/pgx/v5 v5.5.3 // indirect
	github.com/jackc/puddle/v2 v2.2.1 // indirect
	github.com/jinzhu/inflection v1.0.0 // indirect
	github.com/jinzhu/now v1.1.5 // indirect
	github.com/klauspost/compress v1.17.6 // indirect
	github.com/leodido/go-urn v1.4.0 // indirect
	github.com/magiconair/properties v1.8.7 // indirect
	github.com/mattn/go-colorable v0.1.13 // indirect
	github.com/mattn/go-isatty v0.0.20 // indirect
	github.com/mattn/go-runewidth v0.0.15 // indirect
	github.com/mitchellh/mapstructure v1.5.0 // indirect
	github.com/pelletier/go-toml/v2 v2.1.0 // indirect
	github.com/rivo/uniseg v0.4.7 // indirect
	github.com/sagikazarmark/locafero v0.4.0 // indirect
	github.com/sagikazarmark/slog-shim v0.1.0 // indirect
	github.com/sourcegraph/conc v0.3.0 // indirect
	github.com/spf13/afero v1.11.0 // indirect
	github.com/spf13/cast v1.6.0 // indirect
	github.com/subosito/gotenv v1.6.0 // indirect
	github.com/valyala/bytebufferpool v1.0.0 // indirect
	github.com/valyala/fasthttp v1.52.0 // indirect
	github.com/valyala/tcplisten v1.0.0 // indirect
	go.uber.org/atomic v1.9.0 // indirect
	go.uber.org/multierr v1.9.0 // indirect
	golang.org/x/exp v0.0.0-20230905200255-921286631fa9 // indirect
	golang.org/x/net v0.21.0 // indirect
	golang.org/x/sync v0.6.0 // indirect
	golang.org/x/sys v0.17.0 // indirect
	golang.org/x/text v0.14.0 // indirect
	gopkg.in/ini.v1 v1.67.0 // indirect
	gopkg.in/yaml.v3 v3.0.1 // indirect
)
